module github.com/ciehanski/pigeon

go 1.14

require (
	github.com/Pallinder/go-randomdata v1.2.0
	github.com/cretz/bine v0.1.0
	github.com/google/uuid v1.1.1
	github.com/gorilla/websocket v1.4.2
	github.com/ipsn/go-libtor v1.0.289
	golang.org/x/net v0.0.0-20200226121028-0de0cce0169b // indirect
)
